…
```
## 
## Let's see how many unique latitudes and longitudes are associated with each artist: 
## # A tibble: 2,956 x 3
##    artist             nlat nlong
##    <fct>             <int> <int>
##  1 Rihanna               1     1
##  2 Rihanna / Slash       1     1
##  3 Michael Jackson       1     1
##  4 T.I.                  1     1
##  5 Taylor Swift          1     1
##  6 Jason Aldean          1     1
##  7 Bruce Springsteen     1     1
##  8 The Killers           1     1
##  9 Linkin Park           1     1
## 10 Kings Of Leon         1     1
## # ... with 2,946 more rows
## 
## Let's use filter to see which artists have more than one unique pair of coordinates:
…
